Exploring the BRFSS data
…
#To start the analysis, we have to key in the population of America
US_population <- 328100000

All data are from United States Census Bureau: https://www.census.gov

Next, I will sum the number of kids according each state.

#Create a new variable to sum the number of children
sum_children <- data.q2 %>% 
  group_by(X_state) %>% 
  summarise(children = sum(children))

arrange(sum_children,desc(children))

## # A tibble: 53 x 2
##    X_state       children
##    <fct>            <int>
##  1 Florida          13706
##  2 Kansas           12435
##  3 Utah             12117
##  4 Nebraska          9096
##  5 New Jersey        7971
##  6 Minnesota         7806
##  7 Colorado          7516
##  8 Massachusetts     7423
##  9 California        7200
## 10 Texas             6963
## #  with 43 more rows

We can see that Florida has the most children and District of Columbis has the least children.

#Create a new variable of children of each state divides population of America
pro_children <- sum_children %>%
  mutate(pro_children = sum_children$children / US_population)

arrange(pro_children, desc(pro_children))

## # A tibble: 53 x 3
##    X_state       children pro_children
##    <fct>            <int>        <dbl>
##  1 Florida          13706    0.0000418
##  2 Kansas           12435    0.0000379
##  3 Utah             12117    0.0000369
##  4 Nebraska          9096    0.0000277
##  5 New Jersey        7971    0.0000243
##  6 Minnesota         7806    0.0000238
##  7 Colorado          7516    0.0000229
##  8 Massachusetts     7423    0.0000226
##  9 California        7200    0.0000219
## 10 Texas             6963    0.0000212
## #  with 43 more rows
…
